{
  "designerVersion" : "1.7.25",
  "previousDesignerVersion" : "1.5.7",
  "id" : "05f4d4c6-6624-45d8-a97a-1425c3d7c2ce",
  "name" : "initiateVacationAvailableOverview",
  "lastUpdate" : 1522399121462,
  "rows" : [ [ {
    "type" : "component",
    "dimension" : {
      "xs" : 12
    },
    "propertyValues" : {
      "cssClasses" : {
        "type" : "constant",
        "value" : ""
      },
      "hidden" : {
        "type" : "constant",
        "value" : false
      },
      "text" : {
        "type" : "interpolation",
        "value" : "List of vacation available per user"
      },
      "level" : {
        "type" : "constant",
        "value" : "Level 2"
      },
      "alignment" : {
        "type" : "constant",
        "value" : "left"
      }
    },
    "reference" : "6b3ef5dc-a961-4cfb-be8d-2ddd561feae9",
    "id" : "pbTitle"
  } ], [ {
    "type" : "component",
    "dimension" : {
      "xs" : 12
    },
    "propertyValues" : {
      "cssClasses" : {
        "type" : "constant",
        "value" : ""
      },
      "hidden" : {
        "type" : "constant",
        "value" : false
      },
      "headers" : {
        "type" : "constant",
        "value" : [ "User id", "# of days" ]
      },
      "content" : {
        "type" : "expression",
        "value" : "vacationsAvailable"
      },
      "columnsKey" : {
        "type" : "constant",
        "value" : [ "bonitaBPMId", "daysAvailableCounter" ]
      },
      "selectedRow" : {
        "type" : "variable"
      }
    },
    "reference" : "5a98543c-407c-47b7-935f-0375cbfce6fb",
    "id" : "pbTable"
  } ] ],
  "assets" : [ {
    "id" : "e88d4a35-7d24-411e-8e49-768a98b3c231",
    "name" : "style.css",
    "type" : "css",
    "order" : 1,
    "external" : false
  }, {
    "id" : "6afd20a5-c147-4c69-99e4-5426e270cc96",
    "name" : "ui-bootstrap-tpls-0.13.0.min.js",
    "type" : "js",
    "order" : 2,
    "external" : false
  } ],
  "inactiveAssets" : [ ],
  "data" : {
    "vacationsAvailable" : {
      "type" : "url",
      "value" : "../API/bdm/businessData/com.company.model.VacationAvailable?q=find&p=0&c=100",
      "exposed" : false
    }
  },
  "uuid" : "05f4d4c6-6624-45d8-a97a-1425c3d7c2ce",
  "type" : "form"
}